SOC 301 Slides
…
---

## Bootstrap our original sample

- Let's use our original sample from `global13` which we called `sample1`.
- Let's look to see what one such `resample()` of `sample1` gives us:

```r
set.seed(2017)
(boot1 <- sample1 %>% resample(orig.id = TRUE))
```

```
# A tibble: 25 × 3
                            country FEMALEOFFICE orig.id
                              <chr>        <dbl>   <chr>
1                         Argentina         39.8      24
2                            Russia         11.5      14
3                         Australia         29.7      12
4                             Spain         33.6       8
5  Democratic Republic of the Congo          7.7      20
6  Democratic Republic of the Congo          7.7      20
7                      South Africa         33.9       1
8                             Chile         12.7      11
9                         Australia         29.7      12
10                           Canada         24.9       7
# ... with 15 more rows
```
…
