Problem Sets Discussion - SOC 301 - Spring 2017
…
LC5.14

What surprises you about the top 10 destinations from NYC in 2013?

Discussion:

This is referring to

freq_dest <- flights %>% 
  group_by(dest) %>%  
  summarize(num_flights = n()) %>% 
  arrange(desc(num_flights))
freq_dest

## # A tibble: 105 × 2
##     dest num_flights
##    <chr>       <int>
## 1    ORD       17283
## 2    ATL       17215
## 3    LAX       16174
## 4    BOS       15508
## 5    MCO       14082
## 6    CLT       14064
## 7    SFO       13331
## 8    FLL       12055
## 9    MIA       11728
## 10   DCA        9705
## # ... with 95 more rows
…
